Final Markdown
…
## # A tibble: 1,180 x 5
##    `Course Code` `Course Descriptio Grade  `Pathway or Destination`   Enrolment
##    <chr>         <chr>               <fct>  <fct>                          <dbl>
##  1 ADA1O         Drama               Grade Open (Grade 9 - 12 level)      35062
##  2 ADA2O         Drama               Grade Open (Grade 9 - 12 level)      28687
##  3 ADA3M         Drama               Grade University/College Prepar     12196
##  4 ADA3O         Drama               Grade Open (Grade 9 - 12 level)       2838
##  5 ADA4E         Drama               Grade Workplace Preparation (Gr       197
##  6 ADA4M         Drama               Grade University/College Prepar      8349
##  7 ADA4O         Dramatic Arts       Grade Open (Grade 9 - 12 level)         NA
##  8 ADB1O         Drama - Musical Th Grade Open (Grade 9 - 12 level)        151
##  9 ADB2O         Drama - Musical Th Grade Open (Grade 9 - 12 level)        213
## 10 ADB3M         Drama - Musical Th Grade University/College Prepar       591
## #  with 1,170 more rows

## # A tibble: 1,232 x 5
##    `Course Code` `Course Descriptio Grade  `Pathway or Destination`   Enrolment
##    <chr>         <chr>               <fct>  <fct>                          <dbl>
##  1 ADA1O         Drama               Grade Open (Grade 9 - 12 level)      34646
##  2 ADA2O         Drama               Grade Open (Grade 9 - 12 level)      26958
##  3 ADA3M         Drama               Grade University/College Prepar     11380
##  4 ADA3O         Drama               Grade Open (Grade 9 - 12 level)       2479
##  5 ADA4E         Drama               Grade Workplace Preparation (Gr       208
##  6 ADA4M         Drama               Grade University/College Prepar      8172
##  7 ADA4O         Dramatic Arts       Grade Open (Grade 9 - 12 level)         NA
##  8 ADB1O         Drama - Musical Th Grade Open (Grade 9 - 12 level)        229
##  9 ADB2O         Drama - Musical Th Grade Open (Grade 9 - 12 level)        258
## 10 ADB3M         Drama - Musical Th Grade University/College Prepar       626
## #  with 1,222 more rows

## # A tibble: 1,226 x 5
##    `Course Code` `Course Descriptio Grade  `Pathway or Destination`   Enrolment
##    <chr>         <chr>               <fct>  <fct>                          <dbl>
##  1 ADA1O         Drama               Grade Open (Grade 9 - 12 level)      34237
##  2 ADA2O         Drama               Grade Open (Grade 9 - 12 level)      26094
##  3 ADA3M         Drama               Grade University/College Prepar     11043
##  4 ADA3O         Drama               Grade Open (Grade 9 - 12 level)       2033
##  5 ADA4E         Drama               Grade Workplace Preparation (Gr       209
##  6 ADA4M         Drama               Grade University/College Prepar      7290
##  7 ADA4O         Drama               Grade Open (Grade 9 - 12 level)         NA
##  8 ADB1O         Drama - Musical Th Grade Open (Grade 9 - 12 level)        227
##  9 ADB2O         Drama - Musical Th Grade Open (Grade 9 - 12 level)        220
## 10 ADB3M         Drama - Musical Th Grade University/College Prepar       657
## #  with 1,216 more rows
